{
"_class":"page",
"do_objectID":"8387E4DF-2662-4447-AD77-E102BB20D953",
"booleanOperation":0,
"isFixedToViewport":false,
"isFlippedHorizontal":false,
"isFlippedVertical":false,
"isLocked":false,
"isVisible":true,
"layerListExpandedType":0,
"maintainScrollPosition":false,
"name":"Page 1",
"nameIsFixed":false,
"resizingConstraint":63,
"resizingType":0,
"rotation":0,
"shouldBreakMaskChain":false,
"exportOptions":{
"_class":"exportOptions",
"includedLayerIds":[],
"layerOptions":0,
"shouldTrim":false,
"exportFormats":[]
},
"frame":{
"_class":"rect",
"constrainProportions":false,
"height":300,
"width":300,
"x":0,
"y":0
},
"clippingMaskMode":0,
"hasClippingMask":false,
"style":{
"_class":"style",
"do_objectID":"27973D71-1546-4CBA-A82C-6A6650834C34",
"endMarkerType":0,
"miterLimit":10,
"startMarkerType":0,
"windingRule":1,
"blur":{
"_class":"blur",
"isEnabled":false,
"center":"{0.5, 0.5}",
"motionAngle":0,
"radius":10,
"saturation":1,
"type":0
},
"borderOptions":{
"_class":"borderOptions",
"isEnabled":true,
"dashPattern":[],
"lineCapStyle":0,
"lineJoinStyle":0
},
"borders":[],
"colorControls":{
"_class":"colorControls",
"isEnabled":false,
"brightness":0,
"contrast":1,
"hue":0,
"saturation":1
},
"contextSettings":{
"_class":"graphicsContextSettings",
"blendMode":0,
"opacity":1
},
"fills":[],
"innerShadows":[],
"shadows":[]
},
"hasClickThrough":true,
"groupLayout":{
"_class":"MSImmutableFreeformGroupLayout"
},
"layers":[
{
"_class":"artboard",
"do_objectID":"8D99B87B-44A0-4B11-AB03-E0B23A36E593",
"booleanOperation":-1,
"isFixedToViewport":false,
"isFlippedHorizontal":false,
"isFlippedVertical":false,
"isLocked":false,
"isVisible":true,
"layerListExpandedType":2,
"maintainScrollPosition":false,
"name":"Artboard",
"nameIsFixed":false,
"resizingConstraint":63,
"resizingType":0,
"rotation":0,
"shouldBreakMaskChain":true,
"exportOptions":{
"_class":"exportOptions",
"includedLayerIds":[],
"layerOptions":0,
"shouldTrim":false,
"exportFormats":[]
},
"frame":{
"_class":"rect",
"constrainProportions":false,
"height":594,
"width":492,
"x":218,
"y":119
},
"clippingMaskMode":0,
"hasClippingMask":false,
"style":{
"_class":"style",
"do_objectID":"89A22CE7-2C0B-47B2-872E-BAD22F173C26",
"endMarkerType":0,
"miterLimit":10,
"startMarkerType":0,
"windingRule":1,
"blur":{
"_class":"blur",
"isEnabled":false,
"center":"{0.5, 0.5}",
"motionAngle":0,
"radius":10,
"saturation":1,
"type":0
},
"borderOptions":{
"_class":"borderOptions",
"isEnabled":true,
"dashPattern":[],
"lineCapStyle":0,
"lineJoinStyle":0
},
"borders":[],
"colorControls":{
"_class":"colorControls",
"isEnabled":false,
"brightness":0,
"contrast":1,
"hue":0,
"saturation":1
},
"contextSettings":{
"_class":"graphicsContextSettings",
"blendMode":0,
"opacity":1
},
"fills":[],
"innerShadows":[],
"shadows":[]
},
"hasClickThrough":true,
"groupLayout":{
"_class":"MSImmutableFreeformGroupLayout"
},
"layers":[
{
"_class":"rectangle",
"do_objectID":"36EFE860-022C-4A9B-A675-3B265FB4D3C6",
"booleanOperation":-1,
"isFixedToViewport":false,
"isFlippedHorizontal":false,
"isFlippedVertical":false,
"isLocked":false,
"isVisible":true,
"layerListExpandedType":0,
"maintainScrollPosition":false,
"name":"Rectangle",
"nameIsFixed":false,
"resizingConstraint":63,
"resizingType":0,
"rotation":0,
"shouldBreakMaskChain":false,
"exportOptions":{
"_class":"exportOptions",
"includedLayerIds":[],
"layerOptions":0,
"shouldTrim":false,
"exportFormats":[]
},
"frame":{
"_class":"rect",
"constrainProportions":false,
"height":80,
"width":142,
"x":314,
"y":387
},
"clippingMaskMode":0,
"hasClippingMask":false,
"style":{
"_class":"style",
"do_objectID":"ADA75FAD-B369-4F05-BEFA-5B9985D8900D",
"endMarkerType":0,
"miterLimit":10,
"startMarkerType":0,
"windingRule":1,
"blur":{
"_class":"blur",
"isEnabled":false,
"center":"{0.5, 0.5}",
"motionAngle":0,
"radius":10,
"saturation":1,
"type":0
},
"borderOptions":{
"_class":"borderOptions",
"isEnabled":true,
"dashPattern":[],
"lineCapStyle":0,
"lineJoinStyle":0
},
"borders":[
{
"_class":"border",
"isEnabled":true,
"fillType":0,
"color":{
"_class":"color",
"alpha":1,
"blue":0.592,
"green":0.592,
"red":0.592
},
"contextSettings":{
"_class":"graphicsContextSettings",
"blendMode":0,
"opacity":1
},
"gradient":{
"_class":"gradient",
"elipseLength":0,
"from":"{0.5, 0}",
"gradientType":0,
"to":"{0.5, 1}",
"stops":[
{
"_class":"gradientStop",
"position":0,
"color":{
"_class":"color",
"alpha":1,
"blue":1,
"green":1,
"red":1
}
},
{
"_class":"gradientStop",
"position":1,
"color":{
"_class":"color",
"alpha":1,
"blue":0,
"green":0,
"red":0
}
}
]
},
"position":0,
"thickness":1
}
],
"colorControls":{
"_class":"colorControls",
"isEnabled":false,
"brightness":0,
"contrast":1,
"hue":0,
"saturation":1
},
"contextSettings":{
"_class":"graphicsContextSettings",
"blendMode":0,
"opacity":1
},
"fills":[
{
"_class":"fill",
"isEnabled":true,
"fillType":1,
"color":{
"_class":"color",
"alpha":1,
"blue":0.7124094202898551,
"green":0.11367600010494,
"red":0.4640711266904299
},
"contextSettings":{
"_class":"graphicsContextSettings",
"blendMode":0,
"opacity":1
},
"gradient":{
"_class":"gradient",
"elipseLength":0,
"from":"{0.49999999999999978, 0.5}",
"gradientType":1,
"to":"{0.49999999999999978, 1.0786354758522729}",
"stops":[
{
"_class":"gradientStop",
"position":0,
"color":{
"_class":"color",
"alpha":1,
"blue":0.09844826367601738,
"green":0.09844826367601738,
"red":0.3753679800724637
}
},
{
"_class":"gradientStop",
"position":1,
"color":{
"_class":"color",
"alpha":1,
"blue":0.475906391433516,
"green":0.6392379981884058,
"red":0.2102493728416553
}
}
]
},
"noiseIndex":0,
"noiseIntensity":0,
"patternFillType":1,
"patternTileScale":1
}
],
"innerShadows":[],
"shadows":[]
},
"edited":false,
"isClosed":true,
"pointRadiusBehaviour":1,
"points":[
{
"_class":"curvePoint",
"cornerRadius":0,
"curveFrom":"{0, 0}",
"curveMode":1,
"curveTo":"{0, 0}",
"hasCurveFrom":false,
"hasCurveTo":false,
"point":"{0, 0}"
},
{
"_class":"curvePoint",
"cornerRadius":0,
"curveFrom":"{1, 0}",
"curveMode":1,
"curveTo":"{1, 0}",
"hasCurveFrom":false,
"hasCurveTo":false,
"point":"{1, 0}"
},
{
"_class":"curvePoint",
"cornerRadius":0,
"curveFrom":"{1, 1}",
"curveMode":1,
"curveTo":"{1, 1}",
"hasCurveFrom":false,
"hasCurveTo":false,
"point":"{1, 1}"
},
{
"_class":"curvePoint",
"cornerRadius":0,
"curveFrom":"{0, 1}",
"curveMode":1,
"curveTo":"{0, 1}",
"hasCurveFrom":false,
"hasCurveTo":false,
"point":"{0, 1}"
}
],
"fixedRadius":0,
"needsConvertionToNewRoundCorners":false,
"hasConvertedToNewRoundCorners":true
},
{
"_class":"oval",
"do_objectID":"57B1B3D1-4E08-4BF8-AE75-43552431CA52",
"booleanOperation":-1,
"isFixedToViewport":false,
"isFlippedHorizontal":false,
"isFlippedVertical":false,
"isLocked":false,
"isVisible":true,
"layerListExpandedType":0,
"maintainScrollPosition":false,
"name":"Oval Copy",
"nameIsFixed":false,
"resizingConstraint":63,
"resizingType":0,
"rotation":0,
"shouldBreakMaskChain":false,
"exportOptions":{
"_class":"exportOptions",
"includedLayerIds":[],
"layerOptions":0,
"shouldTrim":false,
"exportFormats":[]
},
"frame":{
"_class":"rect",
"constrainProportions":false,
"height":80,
"width":86,
"x":175,
"y":377
},
"clippingMaskMode":0,
"hasClippingMask":false,
"style":{
"_class":"style",
"do_objectID":"84BBCCD8-3F96-4D45-ACBA-25C7628A58BE",
"endMarkerType":0,
"miterLimit":10,
"startMarkerType":0,
"windingRule":1,
"blur":{
"_class":"blur",
"isEnabled":false,
"center":"{0.5, 0.5}",
"motionAngle":0,
"radius":10,
"saturation":1,
"type":0
},
"borderOptions":{
"_class":"borderOptions",
"isEnabled":true,
"dashPattern":[],
"lineCapStyle":0,
"lineJoinStyle":0
},
"borders":[
{
"_class":"border",
"isEnabled":true,
"fillType":0,
"color":{
"_class":"color",
"alpha":1,
"blue":0.592,
"green":0.592,
"red":0.592
},
"contextSettings":{
"_class":"graphicsContextSettings",
"blendMode":0,
"opacity":1
},
"gradient":{
"_class":"gradient",
"elipseLength":0,
"from":"{0.5, 0}",
"gradientType":0,
"to":"{0.5, 1}",
"stops":[
{
"_class":"gradientStop",
"position":0,
"color":{
"_class":"color",
"alpha":1,
"blue":1,
"green":1,
"red":1
}
},
{
"_class":"gradientStop",
"position":1,
"color":{
"_class":"color",
"alpha":1,
"blue":0,
"green":0,
"red":0
}
}
]
},
"position":0,
"thickness":1
}
],
"colorControls":{
"_class":"colorControls",
"isEnabled":false,
"brightness":0,
"contrast":1,
"hue":0,
"saturation":1
},
"contextSettings":{
"_class":"graphicsContextSettings",
"blendMode":0,
"opacity":1
},
"fills":[
{
"_class":"fill",
"isEnabled":true,
"fillType":0,
"color":{
"_class":"color",
"alpha":1,
"blue":0.2384683737783476,
"green":0.2384683737783476,
"red":0.8058480525362319
},
"contextSettings":{
"_class":"graphicsContextSettings",
"blendMode":0,
"opacity":1
},
"gradient":{
"_class":"gradient",
"elipseLength":0,
"from":"{0.5, 0}",
"gradientType":0,
"to":"{0.5, 1}",
"stops":[
{
"_class":"gradientStop",
"position":0,
"color":{
"_class":"color",
"alpha":1,
"blue":1,
"green":1,
"red":1
}
},
{
"_class":"gradientStop",
"position":1,
"color":{
"_class":"color",
"alpha":1,
"blue":0,
"green":0,
"red":0
}
}
]
},
"noiseIndex":0,
"noiseIntensity":0,
"patternFillType":1,
"patternTileScale":1
}
],
"innerShadows":[],
"shadows":[]
},
"edited":false,
"isClosed":true,
"pointRadiusBehaviour":1,
"points":[
{
"_class":"curvePoint",
"cornerRadius":0,
"curveFrom":"{0.77614237490000004, 1}",
"curveMode":2,
"curveTo":"{0.22385762510000001, 1}",
"hasCurveFrom":true,
"hasCurveTo":true,
"point":"{0.5, 1}"
},
{
"_class":"curvePoint",
"cornerRadius":0,
"curveFrom":"{1, 0.22385762510000001}",
"curveMode":2,
"curveTo":"{1, 0.77614237490000004}",
"hasCurveFrom":true,
"hasCurveTo":true,
"point":"{1, 0.5}"
},
{
"_class":"curvePoint",
"cornerRadius":0,
"curveFrom":"{0.22385762510000001, 0}",
"curveMode":2,
"curveTo":"{0.77614237490000004, 0}",
"hasCurveFrom":true,
"hasCurveTo":true,
"point":"{0.5, 0}"
},
{
"_class":"curvePoint",
"cornerRadius":0,
"curveFrom":"{0, 0.77614237490000004}",
"curveMode":2,
"curveTo":"{0, 0.22385762510000001}",
"hasCurveFrom":true,
"hasCurveTo":true,
"point":"{0, 0.5}"
}
]
},
{
"_class":"oval",
"do_objectID":"6BB07FEC-8362-4296-B907-51266CF48A8A",
"booleanOperation":-1,
"isFixedToViewport":false,
"isFlippedHorizontal":false,
"isFlippedVertical":false,
"isLocked":false,
"isVisible":true,
"layerListExpandedType":0,
"maintainScrollPosition":false,
"name":"Oval Copy 2",
"nameIsFixed":false,
"resizingConstraint":63,
"resizingType":0,
"rotation":0,
"shouldBreakMaskChain":false,
"exportOptions":{
"_class":"exportOptions",
"includedLayerIds":[],
"layerOptions":0,
"shouldTrim":false,
"exportFormats":[]
},
"frame":{
"_class":"rect",
"constrainProportions":false,
"height":80,
"width":86,
"x":36,
"y":377
},
"clippingMaskMode":0,
"hasClippingMask":false,
"style":{
"_class":"style",
"do_objectID":"B5D34700-EE3A-4C4D-A843-13C76A42AB9D",
"endMarkerType":0,
"miterLimit":10,
"startMarkerType":0,
"windingRule":1,
"blur":{
"_class":"blur",
"isEnabled":false,
"center":"{0.5, 0.5}",
"motionAngle":0,
"radius":10,
"saturation":1,
"type":0
},
"borderOptions":{
"_class":"borderOptions",
"isEnabled":true,
"dashPattern":[],
"lineCapStyle":0,
"lineJoinStyle":0
},
"borders":[
{
"_class":"border",
"isEnabled":true,
"fillType":0,
"color":{
"_class":"color",
"alpha":1,
"blue":0.592,
"green":0.592,
"red":0.592
},
"contextSettings":{
"_class":"graphicsContextSettings",
"blendMode":0,
"opacity":1
},
"gradient":{
"_class":"gradient",
"elipseLength":0,
"from":"{0.5, 0}",
"gradientType":0,
"to":"{0.5, 1}",
"stops":[
{
"_class":"gradientStop",
"position":0,
"color":{
"_class":"color",
"alpha":1,
"blue":1,
"green":1,
"red":1
}
},
{
"_class":"gradientStop",
"position":1,
"color":{
"_class":"color",
"alpha":1,
"blue":0,
"green":0,
"red":0
}
}
]
},
"position":0,
"thickness":1
}
],
"colorControls":{
"_class":"colorControls",
"isEnabled":false,
"brightness":0,
"contrast":1,
"hue":0,
"saturation":1
},
"contextSettings":{
"_class":"graphicsContextSettings",
"blendMode":0,
"opacity":1
},
"fills":[
{
"_class":"fill",
"isEnabled":true,
"fillType":0,
"color":{
"_class":"color",
"alpha":1,
"blue":0.2384683737783476,
"green":0.2384683737783476,
"red":0.8058480525362319
},
"contextSettings":{
"_class":"graphicsContextSettings",
"blendMode":0,
"opacity":1
},
"gradient":{
"_class":"gradient",
"elipseLength":0,
"from":"{0.5, 0}",
"gradientType":0,
"to":"{0.5, 1}",
"stops":[
{
"_class":"gradientStop",
"position":0,
"color":{
"_class":"color",
"alpha":1,
"blue":1,
"green":1,
"red":1
}
},
{
"_class":"gradientStop",
"position":1,
"color":{
"_class":"color",
"alpha":1,
"blue":0,
"green":0,
"red":0
}
}
]
},
"noiseIndex":0,
"noiseIntensity":0,
"patternFillType":1,
"patternTileScale":1
}
],
"innerShadows":[],
"shadows":[]
},
"edited":false,
"isClosed":true,
"pointRadiusBehaviour":1,
"points":[
{
"_class":"curvePoint",
"cornerRadius":0,
"curveFrom":"{0.77614237490000004, 1}",
"curveMode":2,
"curveTo":"{0.22385762510000001, 1}",
"hasCurveFrom":true,
"hasCurveTo":true,
"point":"{0.5, 1}"
},
{
"_class":"curvePoint",
"cornerRadius":0,
"curveFrom":"{1, 0.22385762510000001}",
"curveMode":2,
"curveTo":"{1, 0.77614237490000004}",
"hasCurveFrom":true,
"hasCurveTo":true,
"point":"{1, 0.5}"
},
{
"_class":"curvePoint",
"cornerRadius":0,
"curveFrom":"{0.22385762510000001, 0}",
"curveMode":2,
"curveTo":"{0.77614237490000004, 0}",
"hasCurveFrom":true,
"hasCurveTo":true,
"point":"{0.5, 0}"
},
{
"_class":"curvePoint",
"cornerRadius":0,
"curveFrom":"{0, 0.77614237490000004}",
"curveMode":2,
"curveTo":"{0, 0.22385762510000001}",
"hasCurveFrom":true,
"hasCurveTo":true,
"point":"{0, 0.5}"
}
]
},
{
"_class":"text",
"do_objectID":"FD378209-FE9F-48B6-A305-0C895C8429F4",
"booleanOperation":-1,
"isFixedToViewport":false,
"isFlippedHorizontal":false,
"isFlippedVertical":false,
"isLocked":false,
"isVisible":true,
"layerListExpandedType":0,
"maintainScrollPosition":false,
"name":"Type something",
"nameIsFixed":false,
"resizingConstraint":47,
"resizingType":0,
"rotation":0,
"shouldBreakMaskChain":false,
"exportOptions":{
"_class":"exportOptions",
"includedLayerIds":[],
"layerOptions":0,
"shouldTrim":false,
"exportFormats":[]
},
"frame":{
"_class":"rect",
"constrainProportions":false,
"height":27,
"width":198,
"x":93,
"y":184
},
"clippingMaskMode":0,
"hasClippingMask":false,
"style":{
"_class":"style",
"do_objectID":"10B52899-1F86-4CC3-A9E8-94A8613ABD9B",
"endMarkerType":0,
"miterLimit":10,
"startMarkerType":0,
"windingRule":1,
"blur":{
"_class":"blur",
"isEnabled":false,
"center":"{0.5, 0.5}",
"motionAngle":0,
"radius":10,
"saturation":1,
"type":0
},
"borderOptions":{
"_class":"borderOptions",
"isEnabled":true,
"dashPattern":[],
"lineCapStyle":0,
"lineJoinStyle":0
},
"borders":[],
"colorControls":{
"_class":"colorControls",
"isEnabled":false,
"brightness":0,
"contrast":1,
"hue":0,
"saturation":1
},
"contextSettings":{
"_class":"graphicsContextSettings",
"blendMode":0,
"opacity":1
},
"fills":[],
"innerShadows":[],
"shadows":[],
"textStyle":{
"_class":"textStyle",
"encodedAttributes":{
"MSAttributedStringFontAttribute":{
"_class":"fontDescriptor",
"attributes":{
"name":"ArialMT",
"size":24
}
},
"MSAttributedStringColorAttribute":{
"_class":"color",
"alpha":1,
"blue":0.2622846006377924,
"green":0.7447916666666666,
"red":0.1222633423844004
},
"textStyleVerticalAlignmentKey":0,
"paragraphStyle":{
"_class":"paragraphStyle",
"alignment":2,
"paragraphSpacing":20,
"allowsDefaultTighteningForTruncation":0,
"baseWritingDirection":0
},
"kerning":2
},
"verticalAlignment":0
}
},
"attributedString":{
"_class":"attributedString",
"string":"Type something",
"attributes":[
{
"_class":"stringAttribute",
"location":0,
"length":14,
"attributes":{
"MSAttributedStringFontAttribute":{
"_class":"fontDescriptor",
"attributes":{
"name":"ArialMT",
"size":24
}
},
"MSAttributedStringColorAttribute":{
"_class":"color",
"alpha":1,
"blue":0.2622846006377924,
"green":0.7447916666666666,
"red":0.1222633423844004
},
"textStyleVerticalAlignmentKey":0,
"paragraphStyle":{
"_class":"paragraphStyle",
"alignment":2,
"paragraphSpacing":20,
"allowsDefaultTighteningForTruncation":0,
"baseWritingDirection":0
},
"kerning":2
}
}
]
},
"automaticallyDrawOnUnderlyingPath":false,
"dontSynchroniseWithSymbol":false,
"glyphBounds":"{{0, 4}, {194, 24}}",
"lineSpacingBehaviour":2,
"textBehaviour":0
}
],
"hasBackgroundColor":false,
"includeBackgroundColorInExport":true,
"includeInCloudUpload":true,
"isFlowHome":false,
"presetDictionary":{},
"resizesContent":false,
"backgroundColor":{
"_class":"color",
"alpha":1,
"blue":1,
"green":1,
"red":1
},
"horizontalRulerData":{
"_class":"rulerData",
"base":0,
"guides":[]
},
"verticalRulerData":{
"_class":"rulerData",
"base":0,
"guides":[]
}
}
],
"includeInCloudUpload":true,
"horizontalRulerData":{
"_class":"rulerData",
"base":0,
"guides":[]
},
"verticalRulerData":{
"_class":"rulerData",
"base":0,
"guides":[]
}
}