{
"_class":"document",
"do_objectID":"06FA5FCF-BF2E-4010-A438-8A84536A6B60",
"colorSpace":0,
"currentPageIndex":0,
"assets":{
"_class":"assetCollection",
"do_objectID":"6AFB89FD-F2C6-4C63-8174-5560D26BB074",
"images":[],
"colorAssets":[],
"exportPresets":[],
"gradientAssets":[],
"imageCollection":{
"_class":"imageCollection",
"images":{}
},
"colors":[],
"gradients":[]
},
"foreignLayerStyles":[],
"foreignSymbols":[],
"foreignTextStyles":[],
"layerStyles":{
"_class":"sharedStyleContainer",
"objects":[]
},
"layerSymbols":{
"_class":"symbolContainer",
"objects":[]
},
"layerTextStyles":{
"_class":"sharedTextStyleContainer",
"objects":[]
},
"pages":[
{
"_class":"MSJSONFileReference",
"_ref_class":"MSImmutablePage",
"_ref":"pages/8387E4DF-2662-4447-AD77-E102BB20D953"
}
]
}