{
"_class":"document",
"do_objectID":"CDDB5D1F-FD7B-415B-A39D-FC823DCCE6CB",
"colorSpace":0,
"currentPageIndex":0,
"assets":{
"_class":"assetCollection",
"do_objectID":"BE4E157B-B288-4D16-AE26-DB814C1250A0",
"images":[],
"colorAssets":[],
"exportPresets":[],
"gradientAssets":[],
"imageCollection":{
"_class":"imageCollection",
"images":{}
},
"colors":[],
"gradients":[]
},
"foreignLayerStyles":[],
"foreignSymbols":[],
"foreignTextStyles":[],
"layerStyles":{
"_class":"sharedStyleContainer",
"objects":[]
},
"layerSymbols":{
"_class":"symbolContainer",
"objects":[]
},
"layerTextStyles":{
"_class":"sharedTextStyleContainer",
"objects":[]
},
"pages":[
{
"_class":"MSJSONFileReference",
"_ref_class":"MSImmutablePage",
"_ref":"pages/8387E4DF-2662-4447-AD77-E102BB20D953"
}
]
}